Introdução ao R
…
```
## # A tibble: 1 x 10
##   preco quilate corte cor   transparencia profundidade tabela     x     y     z
##   <int>   <dbl> <ord> <ord> <ord>                <dbl>  <dbl> <dbl> <dbl> <dbl>
## 1   326    0.23 Ideal E     SI2                   61.5     55  3.95  3.98  2.43
```

```r
diamante[ , 1] # Seleciona TODAS as linhas e apenas a coluna 1
```

```
## # A tibble: 53,940 x 1
##    preco
##    <int>
##  1   326
##  2   326
##  3   327
##  4   334
##  5   335
##  6   336
##  7   336
##  8   337
##  9   337
## 10   338
## # ... with 53,930 more rows
```
…
